0.00 2798170.00 2798047.00 99.00 0.00 24.00 0.00
1.00 2798168.39 2797947.11 99.99 2.06 119.22 0.01
2.00 2798167.84 2797844.16 103.05 3.12 217.45 0.06
3.00 2798167.77 2797737.12 107.17 3.70 319.64 0.13
4.00 2798167.91 2797625.37 111.90 4.08 426.35 0.20
5.00 2798168.16 2797508.53 117.03 4.37 537.94 0.29
6.00 2798168.44 2797386.28 122.47 4.62 654.69 0.38
7.00 2798168.74 2797258.36 128.17 4.86 776.87 0.48
8.00 2798169.04 2797124.51 134.13 5.09 904.72 0.58
9.00 2798169.34 2796984.48 140.36 5.34 1038.48 0.68
10.00 2798169.62 2796838.00 146.84 5.58 1178.41 0.79
11.00 2798169.90 2796684.80 153.59 5.84 1324.75 0.91
12.00 2798170.17 2796524.62 160.63 6.11 1477.79 1.03
13.00 2798170.43 2796357.15 167.95 6.39 1637.79 1.15
14.00 2798170.68 2796182.10 175.58 6.68 1805.04 1.28
15.00 2798170.92 2795999.16 183.52 6.98 1979.84 1.42
16.00 2798171.14 2795808.00 191.78 7.30 2162.50 1.56
17.00 2798171.35 2795608.30 200.38 7.63 2353.34 1.70
18.00 2798171.55 2795399.70 209.33 7.97 2552.70 1.86
19.00 2798171.74 2795181.85 218.64 8.32 2760.91 2.02
20.00 2798171.91 2794954.37 228.32 8.69 2978.35 2.18
21.00 2798172.07 2794716.87 238.39 9.08 3205.37 2.35
22.00 2798172.21 2794468.97 248.87 9.48 3442.37 2.53
23.00 2798172.34 2794210.24 259.76 9.90 3689.73 2.72
24.00 2798172.46 2793940.25 271.08 10.33 3947.88 2.92
25.00 2798172.55 2793658.57 282.84 10.78 4217.24 3.12
26.00 2798172.63 2793364.73 295.07 11.25 4498.25 3.33
27.00 2798172.69 2793058.27 307.77 11.73 4791.37 3.55
28.00 2798172.74 2792738.69 320.97 12.24 5097.06 3.78
29.00 2798172.76 2792405.48 334.67 12.76 5415.83 4.02
30.00 2798172.77 2792058.14 348.89 13.31 5748.15 4.27
31.00 2798172.76 2791696.12 363.66 13.87 6094.57 4.53
32.00 2798172.72 2791318.86 378.98 14.46 6455.61 4.80
33.00 2798172.67 2790925.81 394.88 15.07 6831.83 5.08
34.00 2798172.59 2790516.36 411.37 15.70 7223.78 5.38
35.00 2798172.49 2790089.92 428.46 16.36 7632.07 5.68
36.00 2798172.37 2789645.87 446.18 17.04 8057.28 6.00
37.00 2798172.22 2789183.56 464.54 17.75 8500.04 6.33
38.00 2798172.05 2788702.35 483.56 18.48 8960.99 6.67
39.00 2798171.85 2788201.56 503.25 19.24 9440.77 7.03
40.00 2798171.63 2787680.51 523.64 20.02 9940.06 7.40
41.00 2798171.39 2787138.48 544.74 20.84 10459.55 7.79
42.00 2798171.11 2786574.77 566.56 21.68 10999.93 8.19
43.00 2798170.81 2785988.62 589.12 22.55 11561.92 8.60
44.00 2798170.48 2785379.30 612.43 23.45 12146.26 9.04
45.00 2798170.12 2784746.03 636.52 24.38 12753.70 9.49
46.00 2798169.74 2784088.04 661.39 25.34 13385.00 9.95
47.00 2798169.32 2783404.53 687.06 26.34 14040.94 10.44
48.00 2798168.87 2782694.70 713.55 27.37 14722.32 10.94
49.00 2798168.40 2781957.73 740.85 28.43 15429.93 11.47
50.00 2798167.89 2781192.78 768.98 29.52 16164.59 12.01
51.00 2798167.35 2780399.04 797.96 30.65 16927.13 12.58
52.00 2798166.78 2779575.64 827.79 31.81 17718.38 13.16
53.00 2798166.18 2778721.75 858.47 33.00 18539.18 13.77
54.00 2798165.55 2777836.51 890.01 34.24 19390.39 14.40
55.00 2798164.88 2776919.06 922.41 35.50 20272.86 15.05
56.00 2798164.19 2775968.54 955.68 36.80 21187.44 15.73
57.00 2798163.46 2774984.10 989.80 38.14 22134.99 16.43
58.00 2798162.70 2773964.88 1024.79 39.51 23116.36 17.16
59.00 2798161.91 2772910.05 1060.62 40.92 24132.40 17.91
60.00 2798161.09 2771818.76 1097.30 42.36 25183.97 18.69
61.00 2798160.24 2770690.20 1134.80 43.84 26271.90 19.49
62.00 2798159.36 2769523.55 1173.12 45.36 27397.00 20.33
63.00 2798158.45 2768318.03 1212.23 46.90 28560.10 21.19
64.00 2798157.51 2767072.86 1252.12 48.48 29761.97 22.08
65.00 2798156.55 2765787.30 1292.75 50.10 31003.40 23.00
66.00 2798155.56 2764460.65 1334.10 51.74 32285.12 23.95
67.00 2798154.55 2763092.22 1376.14 53.42 33607.84 24.94
68.00 2798153.52 2761681.36 1418.82 55.12 34972.27 25.95
69.00 2798152.47 2760227.48 1462.11 56.86 36379.03 26.99
70.00 2798151.40 2758730.02 1505.96 58.62 37828.73 28.07
71.00 2798150.32 2757188.48 1550.32 60.40 39321.94 29.18
72.00 2798149.22 2755602.40 1595.13 62.21 40859.15 30.33
73.00 2798148.12 2753971.39 1640.34 64.04 42440.84 31.51
74.00 2798147.01 2752295.13 1685.88 65.88 44067.40 32.72
75.00 2798145.89 2750573.34 1731.68 67.75 45739.15 33.97
76.00 2798144.78 2748805.86 1777.68 69.62 47456.37 35.25
77.00 2798143.67 2746992.57 1823.78 71.51 49219.24 36.57
78.00 2798142.57 2745133.43 1869.91 73.41 51027.89 37.92
79.00 2798141.48 2743228.52 1915.98 75.30 52882.35 39.31
80.00 2798140.41 2741277.98 1961.91 77.20 54782.57 40.74
81.00 2798139.36 2739282.05 2007.59 79.10 56728.41 42.20
82.00 2798138.34 2737241.08 2052.93 80.99 58719.64 43.70
83.00 2798137.35 2735155.50 2097.83 82.87 60755.91 45.23
84.00 2798136.39 2733025.87 2142.17 84.74 62836.81 46.80
85.00 2798135.48 2730852.84 2185.86 86.59 64961.79 48.40
86.00 2798134.62 2728637.17 2228.79 88.42 67130.21 50.04
87.00 2798133.82 2726379.74 2270.84 90.21 69341.32 51.71
88.00 2798133.08 2724081.53 2311.89 91.98 71594.26 53.41
89.00 2798132.40 2721743.65 2351.85 93.71 73888.05 55.15
90.00 2798131.80 2719367.30 2390.58 95.40 76221.60 56.92
